{
    "segment_data": {
        "line_percent": {
            "args": {
                "gradient": true
            },
            "before": "\uf175 ",
            "after": "%"
        },
        "seperator": {
            "contents": ""
        }
    }
}
