{
    "name": "Gotham",
    "groups": {
        "information:additional":   { "fg": "gotham:fg2", "bg": "gotham:bg2", "attrs": [] },
        "information:unimportant":  { "fg": "gotham:fg1", "bg": "gotham:bg2", "attrs": [] },
        "background":               { "fg": "gotham:fg2", "bg": "gotham:bg1", "attrs": [] },
        "background:divider":       { "fg": "gotham:fg1", "bg": "gotham:bg2", "attrs": [] },
        "seperator":                { "fg": "gotham:fg0", "bg": "gotham:bg1", "attrs": [] },
        "mode":                     { "fg": "gotham:bg1", "bg": "gotham:blue", "attrs": ["bold"] },
        "visual_range":             { "fg": "gotham:fg2", "bg": "gotham:bg3", "attrs": ["bold"] },
        "modified_indicator":       { "fg": "gotham:yellow", "bg": "gotham:bg2", "attrs": ["bold"] },
        "paste_indicator":          { "fg": "gotham:brwhite", "bg": "gotham:bg2", "attrs": ["bold"] },
        "readonly_indicator":       { "fg": "gotham:red", "bg": "gotham:bg2", "attrs": [] },
        "branch_dirty":             { "fg": "gotham:yellow", "bg": "gotham:bg2", "attrs": [] },
        "branch:divider":           { "fg": "gotham:base1", "bg": "gotham:bg2", "attrs": [] },
        "stash:divider":            "branch:divider",
        "file_name":                { "fg": "gotham:fg2", "bg": "gotham:bg2", "attrs": ["bold"] },
        "window_title":             { "fg": "gotham:fg2", "bg": "gotham:bg3", "attrs": [] },
        "file_name_no_file":        { "fg": "gotham:fg1", "bg": "gotham:bg2", "attrs": ["bold"] },
        "file_format":              { "fg": "gotham:fg1", "bg": "gotham:bg2", "attrs": [] },
        "file_vcs_status":          { "fg": "gotham:red", "bg": "gotham:bg2", "attrs": [] },
        "file_vcs_status_M":        { "fg": "gotham:yellow", "bg": "gotham:bg2", "attrs": [] },
        "file_vcs_status_A":        { "fg": "gotham:green", "bg": "gotham:bg2", "attrs": [] },
        "line_percent":             { "fg": "gotham:brwhite", "bg": "gotham:brblack", "attrs": [] },
        "line_percent_gradient":    { "fg": "gotham:black", "bg": "green_yellow_orange_red", "attrs": [] },
        "position":                 { "fg": "gotham:fg2", "bg": "gotham:blue", "attrs": [] },
        "position_gradient":        { "fg": "green_yellow_orange_red", "bg": "gotham:blue", "attrs": [] },
        "line_current":             { "fg": "gotham:bg1", "bg": "gotham:blue", "attrs": ["bold"] },
        "line_current_symbol":      { "fg": "gotham:bg1", "bg": "gotham:blue", "attrs": [] },
        "virtcol_current_gradient": { "fg": "gotham:bg1", "bg": "gotham:blue", "attrs": [] },
        "col_current":              { "fg": "gotham:bg1", "bg": "gotham:blue", "attrs": [] },
        "environment":              { "fg": "gotham:bg1", "bg": "gotham:blue", "attrs": [] },
        "attached_clients":         { "fg": "gotham:yellow", "bg": "gotham:bg1", "attrs": [] },
        "error":                    { "fg": "gotham:rain", "bg": "gotham:bg1", "attrs": ["bold"] },
        "warning":                  { "fg": "gotham:bg1", "bg": "gotham:orange", "attrs": ["bold"] },
        "current_tag":              { "fg": "gotham:green", "bg": "gotham:bg1", "attrs": ["bold"] }
    },
    "mode_translations": {
        "nc": {
            "colors": {
                "gotham:bg2": "gotham:bg1",
                "gotham:bg3": "gotham:bg3",
                "gotham:fg1": "gotham:fg0",
                "gotham:fg2": "gotham:fg0",
                "gotham:fg3": "gotham:fg2",
                "gotham:yellow": "gotham:fg0"
            },
            "groups": {
                "line_current":             { "fg": "gotham:fg0", "bg": "gotham:bg2", "attrs": ["bold"] },
                "line_current_symbol":      { "fg": "gotham:fg0", "bg": "gotham:bg2", "attrs": [] },
                "line_percent_gradient":        { "fg": "gotham:fg0", "bg": "gotham:bg2", "attrs": [] },
                "virtcol_current_gradient":     { "fg": "gotham:fg0", "bg": "gotham:bg2", "attrs": [] }
            }
        },
        "i": {
            "groups": {
                "background":             { "fg": "gotham:fg2", "bg": "gotham:bg1", "attrs": [] },
                "background:divider":     { "fg": "gotham:fg0", "bg": "gotham:bg2", "attrs": [] },
                "mode":                   { "fg": "gotham:bg1", "bg": "gotham:green", "attrs": ["bold"] },
                "modified_indicator":     { "fg": "gotham:yellow", "bg": "gotham:bg2", "attrs": ["bold"] },
                "paste_indicator":        { "fg": "gotham:magenta", "bg": "gotham:bg2", "attrs": ["bold"] },
                "readonly_indicator":     { "fg": "gotham:red", "bg": "gotham:bg2", "attrs": [] },
                "branch":                 { "fg": "gotham:bg1", "bg": "gotham:green", "attrs": [] },
                "branch:divider":         { "fg": "gotham:bg2", "bg": "gotham:green", "attrs": [] },
                "file_directory":         { "fg": "gotham:fg1", "bg": "gotham:bg2", "attrs": [] },
                "file_name":              { "fg": "gotham:fg2", "bg": "gotham:bg2", "attrs": ["bold"] },
                "file_size":              { "fg": "gotham:fg0", "bg": "gotham:bg3", "attrs": [] },
                "file_name_no_file":      { "fg": "gotham:bg1", "bg": "gotham:fg2", "attrs": ["bold"] },
                "file_name_empty":        { "fg": "gotham:bg1", "bg": "gotham:fg2", "attrs": [] },
                "file_format":            { "fg": "gotham:fg1", "bg": "gotham:bg2", "attrs": [] },
                "file_vcs_status":        { "fg": "gotham:red", "bg": "gotham:bg2", "attrs": [] },
                "file_vcs_status_M":      { "fg": "gotham:yellow", "bg": "gotham:bg2", "attrs": [] },
                "file_vcs_status_A":      { "fg": "gotham:green", "bg": "gotham:bg2", "attrs": [] },
                "line_percent":           { "fg": "gotham:black", "bg": "gotham:base1", "attrs": [] },
                "line_percent_gradient":  { "fg": "gotham:bg1", "bg": "green_yellow_orange_red", "attrs": [] },
                "position":               { "fg": "gotham:brwhite", "bg": "gotham:base1", "attrs": [] },
                "position_gradient":      { "fg": "gotham:brwhite", "bg": "gotham:base1", "attrs": [] },
                "line_current":           { "fg": "gotham:bg1", "bg": "gotham:green", "attrs": ["bold"] },
                "line_current_symbol":    { "fg": "gotham:bg1", "bg": "gotham:green", "attrs": [] },
                "col_current":            { "fg": "gotham:bg1", "bg": "gotham:green", "attrs": [] },
                "virtcol_current_gradient": { "fg": "gotham:bg1", "bg": "gotham:green", "attrs": [] }
            }
        },
        "ic": {
            "groups": {
                "background":             { "fg": "gotham:fg2", "bg": "gotham:bg1", "attrs": [] },
                "background:divider":     { "fg": "gotham:fg0", "bg": "gotham:bg2", "attrs": [] },
                "mode":                   { "fg": "gotham:bg1", "bg": "gotham:green", "attrs": ["bold"] },
                "line_current":           { "fg": "gotham:bg1", "bg": "gotham:green", "attrs": ["bold"] },
                "line_current_symbol":    { "fg": "gotham:bg1", "bg": "gotham:green", "attrs": [] },
                "col_current":            { "fg": "gotham:bg1", "bg": "gotham:green", "attrs": [] },
                "virtcol_current_gradient": { "fg": "gotham:bg1", "bg": "gotham:green", "attrs": [] }
             }
        },
        "ix": {
            "groups": {
                "background":             { "fg": "gotham:fg2", "bg": "gotham:bg1", "attrs": [] },
                "background:divider":     { "fg": "gotham:fg0", "bg": "gotham:bg2", "attrs": [] },
                "mode":                   { "fg": "gotham:bg1", "bg": "gotham:green", "attrs": ["bold"] }
            }
        },
        "v": {
            "groups": {
                "mode": { "fg": "gotham:bg1", "bg": "gotham:magenta", "attrs": ["bold"] }
            }
        },
        "V": {
            "groups": {
                "mode": { "fg": "gotham:bg1", "bg": "gotham:magenta", "attrs": ["bold"] }
            }
        },
        "^V": {
            "groups": {
                "mode": { "fg": "gotham:bg1", "bg": "gotham:magenta", "attrs": ["bold"] }
            }
        },
        "R": {
            "groups": {
                "mode": { "fg": "gotham:bg1", "bg": "gotham:red", "attrs": ["bold"] }
            }
        },
        "Rc": {
            "groups": {
                "mode": { "fg": "gotham:bg1", "bg": "gotham:red", "attrs": ["bold"] }
            }
        },
        "Rx": {
            "groups": {
                "mode": { "fg": "gotham:bg1", "bg": "gotham:red", "attrs": ["bold"] }
            }
        }
    }
}
